 0.000000000	 0.069296963	 0.003535538	 0.069345291	 0.148657591	 0.148657591	 0.148657591	 0.148657591
 0.000000000	 0.033511730	 0.021513873	 0.035934552	 0.041961295	 0.041961295	 0.041961447	 0.041961447
 0.000000000	 0.041342448	 0.034086159	 0.050668890	 0.071814012	 0.071814010	 0.071814556	 0.071814556
 0.000000000	 0.021932189	 0.007917511	 0.022313896	 0.037817632	 0.037817632	 0.037817725	 0.037817725
 0.000000000	 0.023997118	 0.010328815	 0.025702049	 0.040313250	 0.040313249	 0.040313482	 0.040313482
 0.000000000	 0.022037918	 0.011190277	 0.022986529	 0.025223134	 0.025223134	 0.025223134	 0.025223134
 0.000000000	 0.035969915	 0.032474537	 0.045622776	 0.077221244	 0.077221243	 0.077221559	 0.077221559
 0.000000000	 0.032207113	 0.055347001	 0.057124879	 0.064314550	 0.064314550	 0.064314550	 0.064314550
 0.000000000	 0.049621523	 0.049834969	 0.066955736	 0.108941933	 0.108941927	 0.108942061	 0.108942061
 0.000000000	 0.009881319	 0.009973199	 0.013358592	 0.021175239	 0.021175285	 0.021175285	 0.021175285
 0.000000000	 0.023874536	 0.005567172	 0.024061454	 0.038267741	 0.038267741	 0.038267810	 0.038267810
 0.000000000	 0.005202688	 0.002493508	 0.005312254	 0.007670219	 0.007670221	 0.007670221	 0.007670221
 0.000000000	 0.016036649	 0.017505875	 0.017755882	 0.018472868	 0.018472868	 0.018472868	 0.018472868
 0.000000000	 0.024341099	 0.042720495	 0.043447234	 0.045734292	 0.045734293	 0.045734293	 0.045734293
 0.000000000	 0.021381920	 0.047727465	 0.048019399	 0.048238498	 0.048238498	 0.048238627	 0.048238627
 0.000000000	 0.023248739	 0.033948146	 0.037913209	 0.051329272	 0.051329271	 0.051329271	 0.051329271
 0.000000000	 0.046574857	 0.031575886	 0.054193206	 0.106229743	 0.106229738	 0.106229848	 0.106229848
 0.000000000	 0.026127292	 0.024691906	 0.033118405	 0.055717710	 0.055717708	 0.055717918	 0.055717918
 0.000000000	 0.008941069	 0.013454432	 0.014373620	 0.016553450	 0.016553451	 0.016553451	 0.016553451
 0.000000000	 0.025053225	 0.019950653	 0.030832637	 0.057696519	 0.057696521	 0.057696521	 0.057696521
 0.000000000	 0.024394424	 0.015274594	 0.027873777	 0.055321257	 0.055321283	 0.055321283	 0.055321283
 0.000000000	 0.020543226	 0.034959458	 0.037592352	 0.040601799	 0.040601833	 0.040601833	 0.040601833
 0.000000000	 0.028675516	 0.022966950	 0.035258288	 0.062058734	 0.062058756	 0.062058756	 0.062058756
 0.000000000	 0.023308819	 0.011215306	 0.024066121	 0.049090371	 0.049090385	 0.049090385	 0.049090385
 0.000000000	 0.009880467	 0.007542259	 0.011981184	 0.021897647	 0.021897663	 0.021897663	 0.021897663
 0.000000000	 0.012302438	 0.022670257	 0.023825798	 0.024583795	 0.024583812	 0.024583812	 0.024583812
 0.000000000	 0.018711903	 0.025434711	 0.029165454	 0.040803666	 0.040803671	 0.040803671	 0.040803671
 0.000000000	 0.029111736	 0.045560761	 0.050212686	 0.066616290	 0.066616320	 0.066616320	 0.066616320
 0.000000000	 0.014785458	 0.012530412	 0.017472324	 0.026318325	 0.026318326	 0.026318326	 0.026318326
 0.000000000	 0.005739581	 0.005606880	 0.006474435	 0.006659981	 0.006659983	 0.006659983	 0.006659983
 0.000000000	 0.031871685	 0.021452012	 0.036155515	 0.066715682	 0.066715687	 0.066715687	 0.066715687
 0.000000000	 0.026903073	 0.005035770	 0.026988483	 0.054292412	 0.054292411	 0.054292539	 0.054292539
 0.000000000	 0.025091083	 0.025193152	 0.033675077	 0.053697770	 0.053697778	 0.053697778	 0.053697778
 0.000000000	 0.025852337	 0.012473108	 0.027156970	 0.052474096	 0.052474095	 0.052474176	 0.052474176
 0.000000000	 0.023731601	 0.030172793	 0.036075312	 0.040874016	 0.040874070	 0.040874070	 0.040874070
 0.000000000	 0.028757095	 0.033325318	 0.040925417	 0.058771893	 0.058771903	 0.058771903	 0.058771903
 0.000000000	 0.036033132	 0.041773293	 0.050815531	 0.078640116	 0.078640113	 0.078640406	 0.078640406
 0.000000000	 0.017422726	 0.031608443	 0.032078365	 0.033113252	 0.033113259	 0.033113259	 0.033113259
 0.000000000	 0.023488837	 0.045075871	 0.046739284	 0.049353292	 0.049353301	 0.049353301	 0.049353301
 0.000000000	 0.024887262	 0.036421227	 0.040717305	 0.049991940	 0.049991961	 0.049991961	 0.049991961
 0.000000000	 0.025079200	 0.023729265	 0.032217898	 0.039659554	 0.039659570	 0.039659570	 0.039659570
 0.000000000	 0.007710588	 0.010299444	 0.011974441	 0.012657956	 0.012657958	 0.012657958	 0.012657958
 0.000000000	 0.035442559	 0.040581486	 0.050366890	 0.079844030	 0.079844029	 0.079844061	 0.079844061
 0.000000000	 0.018220179	 0.037577702	 0.038280567	 0.039945558	 0.039945575	 0.039945575	 0.039945575
 0.000000000	 0.019156999	 0.022682788	 0.027843729	 0.043594836	 0.043594835	 0.043594913	 0.043594913
 0.000000000	 0.015811466	 0.012479190	 0.018626743	 0.030160615	 0.030160615	 0.030160615	 0.030160615
 0.000000000	 0.025963428	 0.018124787	 0.030528789	 0.059247244	 0.059247243	 0.059247286	 0.059247286
 0.000000000	 0.012669383	 0.017491354	 0.020211457	 0.028642260	 0.028642272	 0.028642272	 0.028642272
 0.000000000	 0.025831765	 0.011133039	 0.027496683	 0.057872496	 0.057872493	 0.057872493	 0.057872493
 0.000000000	 0.020844157	 0.035038910	 0.037850030	 0.047945013	 0.047945013	 0.047945081	 0.047945081
 0.000000000	 0.012022532	 0.004968112	 0.012830499	 0.022606639	 0.022606643	 0.022606643	 0.022606643
 0.000000000	 0.036822962	 0.008922260	 0.037524131	 0.075572849	 0.075572848	 0.075572939	 0.075572939
 0.000000000	 0.027320268	 0.028010209	 0.037101747	 0.061269768	 0.061269778	 0.061269778	 0.061269778
 0.000000000	 0.017245504	 0.014586985	 0.021023688	 0.037829479	 0.037829516	 0.037829516	 0.037829516
 0.000000000	 0.012542093	 0.012509384	 0.015605283	 0.018579762	 0.018579771	 0.018579771	 0.018579771
 0.000000000	 0.021696292	 0.011167897	 0.023660580	 0.048741995	 0.048741995	 0.048741995	 0.048741995
 0.000000000	 0.026610272	 0.007853659	 0.027440626	 0.055417626	 0.055417625	 0.055417698	 0.055417698
 0.000000000	 0.023118880	 0.010635114	 0.024397143	 0.029467390	 0.029467390	 0.029467390	 0.029467390
 0.000000000	 0.025181391	 0.020169458	 0.030913055	 0.055261592	 0.055261608	 0.055261608	 0.055261608
 0.000000000	 0.035458192	 0.027032317	 0.041644453	 0.077285308	 0.077285302	 0.077285393	 0.077285393
 0.000000000	 0.023859625	 0.050969066	 0.051470493	 0.053441381	 0.053441394	 0.053441394	 0.053441394
 0.000000000	 0.019333327	 0.030252242	 0.032306150	 0.038799447	 0.038799485	 0.038799485	 0.038799485
 0.000000000	 0.018438052	 0.017616753	 0.021994918	 0.035132057	 0.035132062	 0.035132062	 0.035132062
 0.000000000	 0.015066161	 0.018186622	 0.021751735	 0.031291756	 0.031291762	 0.031291762	 0.031291762
 0.000000000	 0.036655071	 0.045548397	 0.054911139	 0.075914312	 0.075914314	 0.075914314	 0.075914314
 0.000000000	 0.035362604	 0.049985933	 0.057292635	 0.080133745	 0.080133743	 0.080134095	 0.080134095
 0.000000000	 0.019133778	 0.032484927	 0.034951553	 0.041633311	 0.041633312	 0.041633312	 0.041633312
 0.000000000	 0.011195060	 0.007923080	 0.011818525	 0.020866563	 0.020866567	 0.020866567	 0.020866567
 0.000000000	 0.020801668	 0.035035264	 0.037654694	 0.046666216	 0.046666253	 0.046666253	 0.046666253
 0.000000000	 0.014551558	 0.021360868	 0.023138934	 0.024528205	 0.024528214	 0.024528214	 0.024528214
 0.000000000	 0.025345094	 0.043655570	 0.045752552	 0.051920803	 0.051920812	 0.051920812	 0.051920812
 0.000000000	 0.017665560	 0.008980709	 0.019097821	 0.039481379	 0.039481383	 0.039481383	 0.039481383
 0.000000000	 0.018043134	 0.013523078	 0.021283620	 0.038967740	 0.038967775	 0.038967775	 0.038967775
 0.000000000	 0.022817788	 0.012680191	 0.025401556	 0.052317385	 0.052317386	 0.052317386	 0.052317386
 0.000000000	 0.034162205	 0.037516859	 0.047931364	 0.078369412	 0.078369409	 0.078369485	 0.078369485
 0.000000000	 0.012018988	 0.010291096	 0.014988658	 0.021750181	 0.021750199	 0.021750199	 0.021750199
 0.000000000	 0.011300795	 0.021355340	 0.021756751	 0.021866164	 0.021866171	 0.021866171	 0.021866171
 0.000000000	 0.028829757	 0.048074025	 0.051906249	 0.062038309	 0.062038308	 0.062038378	 0.062038378
 0.000000000	 0.011916861	 0.007509976	 0.012355449	 0.017146483	 0.017146491	 0.017146491	 0.017146491
 0.000000000	 0.026144518	 0.030198360	 0.036052226	 0.053585825	 0.053585833	 0.053585833	 0.053585833
 0.000000000	 0.011939718	 0.022480351	 0.023496725	 0.023729078	 0.023729091	 0.023729091	 0.023729091
 0.000000000	 0.020782676	 0.045283121	 0.045757397	 0.046253882	 0.046253882	 0.046253882	 0.046253882
 0.000000000	 0.024322725	 0.012663794	 0.026838392	 0.051497410	 0.051497437	 0.051497437	 0.051497437
 0.000000000	 0.018281829	 0.014961825	 0.022714901	 0.041429680	 0.041429685	 0.041429685	 0.041429685
 0.000000000	 0.049897693	 0.004856323	 0.050092455	 0.115117937	 0.115117918	 0.115118254	 0.115118254
 0.000000000	 0.043142101	 0.035713528	 0.053662297	 0.090462356	 0.090462350	 0.090462523	 0.090462523
 0.000000000	 0.029304752	 0.043630809	 0.047581996	 0.052707439	 0.052707458	 0.052707458	 0.052707458
 0.000000000	 0.016043739	 0.011193481	 0.018431895	 0.029409424	 0.029409424	 0.029409424	 0.029409424
 0.000000000	 0.018622040	 0.040698617	 0.040934292	 0.041938616	 0.041938671	 0.041938671	 0.041938671
 0.000000000	 0.010319897	 0.010594235	 0.012913249	 0.019945750	 0.019945750	 0.019945750	 0.019945750
 0.000000000	 0.032167650	 0.044333634	 0.049898094	 0.066494681	 0.066494683	 0.066494683	 0.066494683
 0.000000000	 0.019112966	 0.027994840	 0.029656096	 0.031936346	 0.031936404	 0.031936404	 0.031936404
 0.000000000	 0.018418097	 0.020172420	 0.025850573	 0.042385612	 0.042385631	 0.042385631	 0.042385631
 0.000000000	 0.020107868	 0.040310588	 0.041103205	 0.041335437	 0.041335438	 0.041335438	 0.041335438
 0.000000000	 0.018599107	 0.040322560	 0.040767143	 0.040863949	 0.040864006	 0.040864006	 0.040864006
 0.000000000	 0.021402408	 0.024568135	 0.029483721	 0.041149035	 0.041149052	 0.041149052	 0.041149052
 0.000000000	 0.020581027	 0.026085294	 0.030430399	 0.039895730	 0.039895736	 0.039895736	 0.039895736
 0.000000000	 0.021365864	 0.035415436	 0.038328377	 0.048985256	 0.048985256	 0.048985256	 0.048985256
 0.000000000	 0.018775471	 0.036399696	 0.036579060	 0.037100481	 0.037100534	 0.037100534	 0.037100534
 0.000000000	 0.015657684	 0.030421563	 0.031120710	 0.031850942	 0.031850943	 0.031850943	 0.031850943
 0.000000000	 0.014837056	 0.005565837	 0.015135245	 0.024203370	 0.024203370	 0.024203370	 0.024203370
 0.000000000	 0.018439298	 0.013514304	 0.021628173	 0.023448935	 0.023448950	 0.023448950	 0.023448950
 0.000000000	 0.023215041	 0.010309875	 0.024963853	 0.045708060	 0.045708063	 0.045708063	 0.045708063
 0.000000000	 0.036273255	 0.009973625	 0.037370235	 0.078818242	 0.078818238	 0.078818404	 0.078818404
 0.000000000	 0.022580794	 0.020582386	 0.029071704	 0.051695106	 0.051695107	 0.051695107	 0.051695107
 0.000000000	 0.022014648	 0.005571872	 0.022215165	 0.046541093	 0.046541091	 0.046541225	 0.046541225
 0.000000000	 0.024269149	 0.011139781	 0.025130577	 0.038925763	 0.038925779	 0.038925779	 0.038925779
 0.000000000	 0.021636926	 0.013449461	 0.022861371	 0.026081110	 0.026081113	 0.026081113	 0.026081113
 0.000000000	 0.048624294	 0.003661559	 0.048698892	 0.111682331	 0.111682340	 0.111682340	 0.111682340
 0.000000000	 0.046715523	 0.035917023	 0.055211207	 0.103283418	 0.103283411	 0.103284015	 0.103284015
 0.000000000	 0.019574923	 0.033360196	 0.035099533	 0.037754740	 0.037754744	 0.037754744	 0.037754744
 0.000000000	 0.023417799	 0.013425557	 0.026149792	 0.043936309	 0.043936308	 0.043936308	 0.043936308
 0.000000000	 0.021491883	 0.020097266	 0.027965972	 0.048587227	 0.048587226	 0.048587286	 0.048587286
 0.000000000	 0.015058263	 0.014558722	 0.017169449	 0.023060667	 0.023060671	 0.023060671	 0.023060671
 0.000000000	 0.014734060	 0.014145051	 0.018012122	 0.024559427	 0.024559432	 0.024559432	 0.024559432
 0.000000000	 0.022582038	 0.023057737	 0.027967098	 0.033999580	 0.033999580	 0.033999580	 0.033999580
 0.000000000	 0.017165407	 0.033364048	 0.033815211	 0.034273905	 0.034273926	 0.034273926	 0.034273926
 0.000000000	 0.020895643	 0.010283564	 0.021504151	 0.042482197	 0.042482213	 0.042482213	 0.042482213
 0.000000000	 0.009534342	 0.010320016	 0.013231348	 0.020171245	 0.020171248	 0.020171248	 0.020171248
 0.000000000	 0.018814960	 0.040318119	 0.040506487	 0.040549761	 0.040549762	 0.040549762	 0.040549762
 0.000000000	 0.026815145	 0.032458739	 0.038078349	 0.054950710	 0.054950733	 0.054950733	 0.054950733
 0.000000000	 0.028083550	 0.050250486	 0.053267626	 0.064607185	 0.064607184	 0.064607260	 0.064607260
 0.000000000	 0.032900086	 0.069995972	 0.071077267	 0.075158292	 0.075158292	 0.075158329	 0.075158329
 0.000000000	 0.009334516	 0.018212483	 0.018272067	 0.018393758	 0.018393768	 0.018393768	 0.018393768
 0.000000000	 0.018013752	 0.007899381	 0.018408425	 0.036593343	 0.036593366	 0.036593366	 0.036593366
 0.000000000	 0.007018572	 0.012735045	 0.013210913	 0.014993401	 0.014993404	 0.014993404	 0.014993404
 0.000000000	 0.010096343	 0.010602518	 0.012409660	 0.018157007	 0.018157007	 0.018157007	 0.018157007
 0.000000000	 0.019081346	 0.007509142	 0.020242375	 0.043598538	 0.043598546	 0.043598546	 0.043598546
 0.000000000	 0.011054311	 0.012501679	 0.013464318	 0.016861880	 0.016861903	 0.016861903	 0.016861903
 0.000000000	 0.016141310	 0.013440857	 0.019902728	 0.036414922	 0.036414973	 0.036414973	 0.036414973
 0.000000000	 0.016636860	 0.005573846	 0.017240103	 0.037810881	 0.037810885	 0.037810885	 0.037810885
 0.000000000	 0.025676177	 0.020161603	 0.031320407	 0.058908901	 0.058908897	 0.058909010	 0.058909010
 0.000000000	 0.023572558	 0.039521123	 0.041113904	 0.047350852	 0.047350854	 0.047350854	 0.047350854
 0.000000000	 0.020942418	 0.011147859	 0.022815500	 0.046629595	 0.046629604	 0.046629604	 0.046629604
 0.000000000	 0.023976288	 0.005563392	 0.024397929	 0.053726956	 0.053726954	 0.053727109	 0.053727109
 0.000000000	 0.018739543	 0.026943055	 0.029298680	 0.036931486	 0.036931504	 0.036931504	 0.036931504
 0.000000000	 0.020521200	 0.036395408	 0.037509088	 0.041775962	 0.041775963	 0.041775963	 0.041775963
 0.000000000	 0.022909063	 0.007956292	 0.023887522	 0.051660344	 0.051660352	 0.051660352	 0.051660352
 0.000000000	 0.011234728	 0.002491796	 0.011286110	 0.019402761	 0.019402777	 0.019402777	 0.019402777
 0.000000000	 0.035457593	 0.003478028	 0.035537433	 0.080423242	 0.080423264	 0.080423264	 0.080423264
 0.000000000	 0.017179979	 0.016790852	 0.022291137	 0.036971214	 0.036971214	 0.036971301	 0.036971301
 0.000000000	 0.016275888	 0.002536792	 0.016433690	 0.029960071	 0.029960084	 0.029960084	 0.029960084
 0.000000000	 0.020397273	 0.025175161	 0.030491518	 0.045470551	 0.045470549	 0.045470549	 0.045470549
 0.000000000	 0.010186133	 0.007881864	 0.012205664	 0.022810229	 0.022810238	 0.022810238	 0.022810238
 0.000000000	 0.010917267	 0.005625115	 0.011826763	 0.024380999	 0.024381055	 0.024381055	 0.024381055
 0.000000000	 0.009150846	 0.013461699	 0.014509261	 0.015281016	 0.015281016	 0.015281016	 0.015281016
 0.000000000	 0.028674670	 0.041391177	 0.044404476	 0.046302771	 0.046302815	 0.046302815	 0.046302815
 0.000000000	 0.072509111	 0.099617404	 0.113658446	 0.160848378	 0.160848385	 0.160848385	 0.160848385
 0.000000000	 0.059996962	 0.091914141	 0.098937745	 0.124774052	 0.124774045	 0.124776133	 0.124776133
 0.000000000	 0.038260667	 0.035801765	 0.049870102	 0.087716967	 0.087716962	 0.087717161	 0.087717161
 0.000000000	 0.093731390	 0.146463801	 0.160373714	 0.210243497	 0.210243497	 0.210243675	 0.210243675
 0.000000000	 0.135469230	 0.199413871	 0.209343995	 0.245171415	 0.245171415	 0.245173570	 0.245173570
 0.000000000	 0.095867991	 0.096274672	 0.106217613	 0.110051033	 0.110051032	 0.110051059	 0.110051059
 0.000000000	 0.127061395	 0.129016257	 0.160607730	 0.216836173	 0.216836173	 0.216849569	 0.216849569
 0.000000000	 0.096514628	 0.064592715	 0.105315061	 0.190281290	 0.190281289	 0.190284025	 0.190284025
 0.000000000	 0.280408571	 0.221761661	 0.297695896	 0.492612071	 0.492612071	 0.492617555	 0.492617555
 0.000000000	 0.317447045	 0.413105146	 0.433734985	 0.438860792	 0.438860792	 0.438878169	 0.438878169
 0.000000000	 0.121284732	 0.151079938	 0.179296462	 0.245353333	 0.245353333	 0.245359433	 0.245359433
 0.000000000	 0.266092703	 0.270638393	 0.291798866	 0.354231289	 0.354231289	 0.354244355	 0.354244355
 0.000000000	 0.368528894	 0.618865623	 0.639132487	 0.702092845	 0.702092845	 0.702121885	 0.702121885
 0.000000000	 0.407041658	 0.675668235	 0.684746744	 0.702347274	 0.702347274	 0.702428510	 0.702428510
 0.000000000	 0.072246114	 0.061285776	 0.086516638	 0.091688792	 0.091688792	 0.091689767	 0.091689767
 0.000000000	 0.286654702	 0.412846396	 0.431868165	 0.436196815	 0.436196815	 0.436211690	 0.436211690
 0.000000000	 0.270288439	 0.310066783	 0.361375776	 0.502273122	 0.502273122	 0.502274676	 0.502274676
 0.000000000	 0.244645838	 0.170808285	 0.289002318	 0.567350834	 0.567350835	 0.567404179	 0.567404179
 0.000000000	 0.245964295	 0.379161636	 0.390085662	 0.397777164	 0.397777164	 0.397797433	 0.397797433
 0.000000000	 0.318103389	 0.134282650	 0.323621121	 0.678726122	 0.678726122	 0.678727019	 0.678727019
 0.000000000	 0.402070839	 0.296425791	 0.481750334	 0.930764826	 0.930764825	 0.930978669	 0.930978669
 0.000000000	 0.291578927	 0.323776273	 0.409386475	 0.618945337	 0.618945337	 0.618986700	 0.618986700
 0.000000000	 0.206111124	 0.209142841	 0.248922241	 0.293575034	 0.293575034	 0.293575193	 0.293575193
 0.000000000	 0.272349549	 0.296808434	 0.353563259	 0.518588218	 0.518588218	 0.518628438	 0.518628438
 0.000000000	 0.243166736	 0.212755738	 0.275144064	 0.455668997	 0.455668997	 0.455671199	 0.455671199
 0.000000000	 0.248523809	 0.279457817	 0.317693611	 0.435793845	 0.435793845	 0.435803263	 0.435803263
 0.000000000	 0.343370060	 0.296201508	 0.427097566	 0.756923628	 0.756923628	 0.757144652	 0.757144652
 0.000000000	 0.332970472	 0.333185932	 0.440646949	 0.720057238	 0.720057238	 0.720059592	 0.720059592
 0.000000000	 0.202203596	 0.348521582	 0.369976240	 0.410963565	 0.410963565	 0.411000237	 0.411000237
 0.000000000	 0.216810680	 0.360343019	 0.387775087	 0.483537581	 0.483537581	 0.483542356	 0.483542356
 0.000000000	 0.111559286	 0.211468609	 0.219650062	 0.243606392	 0.243606392	 0.243634847	 0.243634847
 0.000000000	 0.110956799	 0.150913725	 0.167995554	 0.214897677	 0.214897677	 0.214939544	 0.214939544
 0.000000000	 0.249215601	 0.087094641	 0.254642558	 0.549680456	 0.549680454	 0.549772011	 0.549772011
 0.000000000	 0.327405374	 0.292772611	 0.417225168	 0.740785936	 0.740785937	 0.741241596	 0.741241596
 0.000000000	 0.282427745	 0.328763925	 0.409801439	 0.644568365	 0.644568365	 0.644590891	 0.644590891
 0.000000000	 0.126182172	 0.180283295	 0.201996070	 0.242951523	 0.242951523	 0.243008953	 0.243008953
 0.000000000	 0.105965069	 0.139776377	 0.144599215	 0.147976091	 0.147976091	 0.147981567	 0.147981567
 0.000000000	 0.339696921	 0.098039247	 0.348796329	 0.701043642	 0.701043641	 0.701286071	 0.701286071
 0.000000000	 0.426581013	 0.476333407	 0.595580696	 0.937327893	 0.937327893	 0.938310256	 0.938310256
 0.000000000	 0.519202064	 0.387632793	 0.623417293	 1.121245692	 1.121245692	 1.121413001	 1.121413001
 0.000000000	 0.312714779	 0.340769234	 0.437063532	 0.690356364	 0.690356363	 0.691248602	 0.691248602
 0.000000000	 0.328376591	 0.362251820	 0.462118401	 0.687239301	 0.687239301	 0.687496080	 0.687496080
 0.000000000	 0.254673709	 0.534648715	 0.540661188	 0.563664831	 0.563664831	 0.563786215	 0.563786215
 0.000000000	 0.262211019	 0.404710459	 0.446966100	 0.546459130	 0.546459130	 0.546606676	 0.546606676
 0.000000000	 0.248975493	 0.440730254	 0.466153012	 0.554783917	 0.554783920	 0.555186031	 0.555186031
 0.000000000	 0.052498459	 0.014572738	 0.052999469	 0.105849208	 0.105849217	 0.105978002	 0.105978002
 0.000000000	 0.472496363	 0.204634206	 0.507026281	 0.972922252	 0.972922252	 0.973941565	 0.973941565
 0.000000000	 0.220265726	 0.289638479	 0.336842546	 0.475610739	 0.475610739	 0.476457628	 0.476457628
 0.000000000	 0.124048569	 0.233535965	 0.233725288	 0.233788147	 0.233788147	 0.233842650	 0.233842650
 0.000000000	 0.176330228	 0.062816238	 0.183876106	 0.371652781	 0.371652781	 0.372603572	 0.372603572
 0.000000000	 0.180911582	 0.333870531	 0.344246801	 0.381084064	 0.381084065	 0.381243992	 0.381243992
 0.000000000	 0.124271692	 0.181679930	 0.201156136	 0.229839948	 0.229839951	 0.230293210	 0.230293210
 0.000000000	 0.151814401	 0.153350380	 0.203103157	 0.330367624	 0.330367624	 0.330847933	 0.330847933
 0.000000000	 0.593085666	 0.213885794	 0.623341622	 1.174568618	 1.174568618	 1.178237590	 1.178237590
 0.000000000	 0.547563933	 0.026376091	 0.548810877	 1.021667991	 1.021667991	 1.022434824	 1.022434824
 0.000000000	 0.272365182	 0.406068504	 0.451053778	 0.538379228	 0.538379228	 0.538706551	 0.538706551
 0.000000000	 0.122816994	 0.175320859	 0.194990125	 0.224802771	 0.224802771	 0.225197069	 0.225197069
 0.000000000	 0.110918798	 0.175434456	 0.189675676	 0.236901894	 0.236901893	 0.237262999	 0.237262999
 0.000000000	 0.242809852	 0.384659872	 0.415933527	 0.518262226	 0.518262224	 0.518822514	 0.518822514
 0.000000000	 0.357111967	 0.181168396	 0.395407619	 0.719483365	 0.719483365	 0.721090342	 0.721090342
 0.000000000	 0.072068718	 0.102870755	 0.114368852	 0.126494337	 0.126494340	 0.126510614	 0.126510614
 0.000000000	 0.250047688	 0.226608275	 0.314985335	 0.396777853	 0.396777852	 0.398369862	 0.398369862
 0.000000000	 0.331479653	 0.198314733	 0.379710883	 0.563299782	 0.563299782	 0.565393209	 0.565393209
 0.000000000	 0.281933458	 0.126875275	 0.299254087	 0.444037241	 0.444037240	 0.447321882	 0.447321882
 0.000000000	 0.101468017	 0.124945458	 0.149693071	 0.156451030	 0.156451030	 0.156536859	 0.156536859
 0.000000000	 0.083348460	 0.074192124	 0.091577420	 0.097381376	 0.097381376	 0.097393899	 0.097393899
 0.000000000	 0.093068816	 0.106323279	 0.127188504	 0.181760903	 0.181760903	 0.182771735	 0.182771735
 0.000000000	 0.058898167	 0.035815345	 0.067354878	 0.122408896	 0.122408888	 0.123405057	 0.123405057
 0.000000000	 0.036055769	 0.039868905	 0.047128720	 0.049030431	 0.049030431	 0.049031172	 0.049031172
 0.000000000	 0.150611654	 0.060202294	 0.156411133	 0.262411235	 0.262411235	 0.264709405	 0.264709405
 0.000000000	 0.140614836	 0.227429204	 0.242497800	 0.264499411	 0.264499411	 0.264696930	 0.264696930
 0.000000000	 0.191936937	 0.032445871	 0.194995768	 0.325345562	 0.325345562	 0.327744150	 0.327744150
 0.000000000	 0.112978733	 0.110295386	 0.149739526	 0.196217272	 0.196217272	 0.196695413	 0.196695413
 0.000000000	 0.148307145	 0.090946447	 0.169508662	 0.305307109	 0.305307109	 0.306726206	 0.306726206
 0.000000000	 0.157324756	 0.313026035	 0.313052907	 0.313119157	 0.313119157	 0.313372410	 0.313372410
 0.000000000	 0.108629218	 0.034131619	 0.112829283	 0.147421053	 0.147421053	 0.147979208	 0.147979208
 0.000000000	 0.129491856	 0.155394813	 0.189102066	 0.269141563	 0.269141563	 0.270030697	 0.270030697
 0.000000000	 0.062873127	 0.074337417	 0.087301914	 0.100970535	 0.100970531	 0.101386606	 0.101386606
 0.000000000	 0.138394272	 0.092973188	 0.161947330	 0.236111086	 0.236111084	 0.236929080	 0.236929080
 0.000000000	 0.041364745	 0.038008702	 0.052493234	 0.085563589	 0.085563587	 0.085966053	 0.085966053
 0.000000000	 0.055853822	 0.060931577	 0.064518570	 0.076051895	 0.076051894	 0.076378984	 0.076378984
 0.000000000	 0.115661682	 0.084010765	 0.137228511	 0.205611163	 0.205611163	 0.206604812	 0.206604812
 0.000000000	 0.090224384	 0.176896269	 0.178040036	 0.178371243	 0.178371243	 0.178484276	 0.178484276
 0.000000000	 0.085990585	 0.156223206	 0.160632205	 0.163715044	 0.163715041	 0.163880730	 0.163880730
 0.000000000	 0.063265352	 0.056427468	 0.074868182	 0.101352634	 0.101352635	 0.101680622	 0.101680622
 0.000000000	 0.349745365	 0.409172835	 0.508601800	 0.706920978	 0.706920978	 0.708742646	 0.708742646
 0.000000000	 0.094172587	 0.161631153	 0.164127056	 0.172906830	 0.172906832	 0.172962099	 0.172962099
 0.000000000	 0.047083615	 0.037026125	 0.056076764	 0.085936016	 0.085936017	 0.086533992	 0.086533992
 0.000000000	 0.163366027	 0.065698741	 0.176055021	 0.299424360	 0.299424360	 0.301930946	 0.301930946
 0.000000000	 0.096721471	 0.119853344	 0.135807498	 0.172637406	 0.172637402	 0.174109682	 0.174109682
 0.000000000	 0.153019569	 0.213994947	 0.220932419	 0.233186268	 0.233186268	 0.233781734	 0.233781734
 0.000000000	 0.067075331	 0.120969474	 0.123589791	 0.124791936	 0.124791935	 0.124826053	 0.124826053
 0.000000000	 0.073483199	 0.093576683	 0.110094750	 0.157710983	 0.157710978	 0.158482702	 0.158482702
 0.000000000	 0.100995193	 0.122619274	 0.132147546	 0.151764605	 0.151764605	 0.152023476	 0.152023476
 0.000000000	 0.276474514	 0.329194029	 0.403585770	 0.420354532	 0.420354533	 0.420386744	 0.420386744
 0.000000000	 0.258944285	 0.021386846	 0.258973751	 0.434271883	 0.434271880	 0.439646910	 0.439646910
 0.000000000	 0.202068176	 0.130980170	 0.232320116	 0.451935068	 0.451935068	 0.454752688	 0.454752688
 0.000000000	 0.126175765	 0.119910297	 0.154512102	 0.161477470	 0.161477470	 0.161801817	 0.161801817
 0.000000000	 0.204674619	 0.058297345	 0.208731464	 0.278094885	 0.278094886	 0.280601869	 0.280601869
 0.000000000	 0.290437636	 0.189631770	 0.342227720	 0.568735238	 0.568735238	 0.573096327	 0.573096327
 0.000000000	 0.174998187	 0.148093889	 0.220480027	 0.311290436	 0.311290436	 0.314210355	 0.314210355
 0.000000000	 0.149627544	 0.269395799	 0.277267949	 0.296130928	 0.296130927	 0.296171566	 0.296171566
 0.000000000	 0.140767902	 0.048932917	 0.142830893	 0.279242028	 0.279242027	 0.282787688	 0.282787688
 0.000000000	 0.064337554	 0.127401522	 0.128755006	 0.133489050	 0.133489050	 0.133567056	 0.133567056
 0.000000000	 0.050226958	 0.053702869	 0.057245423	 0.058595413	 0.058595413	 0.058597065	 0.058597065
 0.000000000	 0.226966937	 0.069376601	 0.233495149	 0.364397390	 0.364397390	 0.369764608	 0.369764608
 0.000000000	 0.257800399	 0.114890314	 0.267255850	 0.410724196	 0.410724196	 0.415006537	 0.415006537
 0.000000000	 0.110587164	 0.207493725	 0.210106866	 0.221716457	 0.221716456	 0.222271620	 0.222271620
 0.000000000	 0.252874346	 0.037112338	 0.253790546	 0.358181749	 0.358181750	 0.360860908	 0.360860908
 0.000000000	 0.034856895	 0.031711760	 0.042844000	 0.045114475	 0.045114475	 0.045114926	 0.045114926
 0.000000000	 0.082259385	 0.156171349	 0.162838792	 0.181766149	 0.181766149	 0.182115515	 0.182115515
 0.000000000	 0.106300807	 0.004241408	 0.106491674	 0.230885662	 0.230885661	 0.233299862	 0.233299862
 0.000000000	 0.122890303	 0.207952465	 0.224017160	 0.248873292	 0.248873290	 0.249206474	 0.249206474
 0.000000000	 0.128516496	 0.132715362	 0.175030638	 0.208708081	 0.208708081	 0.209154413	 0.209154413
 0.000000000	 0.050516660	 0.071444816	 0.075806468	 0.086177423	 0.086177419	 0.086292196	 0.086292196
 0.000000000	 0.135928233	 0.194246355	 0.221224447	 0.280318001	 0.280317997	 0.281071398	 0.281071398
 0.000000000	 0.285451440	 0.352077487	 0.414915819	 0.486200711	 0.486200711	 0.488717920	 0.488717920
 0.000000000	 0.200081795	 0.224078095	 0.279733863	 0.430098452	 0.430098454	 0.431889344	 0.431889344
 0.000000000	 0.153737005	 0.024999267	 0.154103851	 0.230806158	 0.230806155	 0.232287055	 0.232287055
 0.000000000	 0.216471721	 0.194528711	 0.279730376	 0.460405203	 0.460405203	 0.462022345	 0.462022345
 0.000000000	 0.218009570	 0.322741318	 0.365643821	 0.412676393	 0.412676394	 0.412753382	 0.412753382
 0.000000000	 0.138593724	 0.220188120	 0.238737868	 0.279838608	 0.279838608	 0.279944634	 0.279944634
 0.000000000	 0.124384856	 0.060543345	 0.130445235	 0.247245517	 0.247245517	 0.248086297	 0.248086297
 0.000000000	 0.063455375	 0.011472063	 0.063812150	 0.118201092	 0.118201093	 0.118586263	 0.118586263
 0.000000000	 0.093322832	 0.028585576	 0.096511101	 0.142195135	 0.142195135	 0.142382479	 0.142382479
 0.000000000	 0.105277510	 0.037182725	 0.107640874	 0.186211146	 0.186211147	 0.186815685	 0.186815685
 0.000000000	 0.298464577	 0.114369946	 0.312342631	 0.525959257	 0.525959257	 0.528268513	 0.528268513
 0.000000000	 0.127107529	 0.208712500	 0.225163053	 0.234265436	 0.234265436	 0.234265537	 0.234265537
 0.000000000	 0.259702598	 0.095853184	 0.274458995	 0.450810472	 0.450810472	 0.451402258	 0.451402258
 0.000000000	 0.299433836	 0.319306072	 0.415250382	 0.587986921	 0.587986920	 0.588014575	 0.588014575
 0.000000000	 0.251257565	 0.153527838	 0.287622328	 0.462643114	 0.462643114	 0.463225582	 0.463225582
 0.000000000	 0.149970249	 0.107955736	 0.176788737	 0.281721408	 0.281721408	 0.282097348	 0.282097348
 0.000000000	 0.097835023	 0.012023390	 0.098140509	 0.158042829	 0.158042831	 0.158058023	 0.158058023
 0.000000000	 0.342461314	 0.409036445	 0.497827515	 0.628503960	 0.628503960	 0.628524380	 0.628524380
 0.000000000	 0.202279633	 0.318500621	 0.348365060	 0.444406892	 0.444406892	 0.444539265	 0.444539265
 0.000000000	 0.335446290	 0.073071254	 0.342611640	 0.673331403	 0.673331403	 0.673502095	 0.673502095
 0.000000000	 0.437054016	 0.365421742	 0.551851138	 0.845785764	 0.845785764	 0.845945783	 0.845945783
 0.000000000	 0.338473786	 0.218174056	 0.391819637	 0.759712050	 0.759712049	 0.759909224	 0.759909224
 0.000000000	 0.337827607	 0.357634209	 0.463385129	 0.683420500	 0.683420500	 0.683524507	 0.683524507
 0.000000000	 0.089100295	 0.099667150	 0.125099310	 0.131095114	 0.131095113	 0.131096439	 0.131096439
 0.000000000	 0.067242681	 0.114218178	 0.119927866	 0.121316897	 0.121316896	 0.121335031	 0.121335031
 0.000000000	 0.154724360	 0.319118366	 0.324930558	 0.344629216	 0.344629215	 0.344640103	 0.344640103
 0.000000000	 0.187752510	 0.243747425	 0.288965188	 0.416046919	 0.416046919	 0.416126645	 0.416126645
 0.000000000	 0.379834596	 0.284026715	 0.460348823	 0.804409731	 0.804409729	 0.804434408	 0.804434408
 0.000000000	 0.099631679	 0.140980240	 0.156379538	 0.198092134	 0.198092134	 0.198170130	 0.198170130
 0.000000000	 0.084616899	 0.102395267	 0.122209572	 0.137759955	 0.137759955	 0.137794344	 0.137794344
 0.000000000	 0.106245407	 0.235063665	 0.235495938	 0.235602826	 0.235602826	 0.235607984	 0.235607984
 0.000000000	 0.139646727	 0.264681828	 0.273594876	 0.306963056	 0.306963055	 0.307003911	 0.307003911
 0.000000000	 0.108677450	 0.210045601	 0.217843754	 0.242624210	 0.242624209	 0.242650895	 0.242650895
 0.000000000	 0.330336647	 0.092650730	 0.341848155	 0.730447001	 0.730447001	 0.731279169	 0.731279169
 0.000000000	 0.409794685	 0.258805244	 0.474132745	 0.891773984	 0.891773984	 0.891906568	 0.891906568
 0.000000000	 0.243176638	 0.122396483	 0.268679315	 0.544505165	 0.544505165	 0.545268704	 0.545268704
 0.000000000	 0.109524420	 0.194649490	 0.200270124	 0.219506035	 0.219506035	 0.219531555	 0.219531555
 0.000000000	 0.413453813	 0.287949802	 0.479624985	 0.867765647	 0.867765647	 0.868008968	 0.868008968
 0.000000000	 0.440565732	 0.130410301	 0.451740684	 0.980372907	 0.980372908	 0.982135451	 0.982135451
 0.000000000	 0.254356141	 0.224847974	 0.318485712	 0.542598597	 0.542598597	 0.542706680	 0.542706680
 0.000000000	 0.333221690	 0.035357941	 0.333863624	 0.695048584	 0.695048583	 0.695051732	 0.695051732
 0.000000000	 0.114409372	 0.221844494	 0.227698739	 0.248421288	 0.248421288	 0.248423154	 0.248423154
 0.000000000	 0.100226227	 0.090466661	 0.127466210	 0.218564347	 0.218564347	 0.218663201	 0.218663201
 0.000000000	 0.134839802	 0.127844168	 0.173600590	 0.273512267	 0.273512262	 0.273575242	 0.273575242
 0.000000000	 0.172019665	 0.236599912	 0.271318124	 0.368444290	 0.368444290	 0.368449964	 0.368449964
 0.000000000	 0.194353256	 0.147890594	 0.229894512	 0.413502662	 0.413502662	 0.413630835	 0.413630835
 0.000000000	 0.304849962	 0.360592359	 0.439793534	 0.658056389	 0.658056389	 0.658523588	 0.658523588
 0.000000000	 0.282927473	 0.262804930	 0.365652479	 0.624542427	 0.624542428	 0.624609311	 0.624609311
 0.000000000	 0.305446599	 0.225151755	 0.363811305	 0.681470954	 0.681470954	 0.682017344	 0.682017344
 0.000000000	 0.286641390	 0.185226722	 0.328072061	 0.629058328	 0.629058327	 0.629122726	 0.629122726
 0.000000000	 0.395638170	 0.132864846	 0.400389286	 0.861904213	 0.861904213	 0.862597312	 0.862597312
 0.000000000	 0.464846479	 0.189094738	 0.477878572	 0.995660030	 0.995660030	 0.995692192	 0.995692192
 0.000000000	 0.392617815	 0.135654308	 0.409456398	 0.866574259	 0.866574259	 0.867398927	 0.867398927
 0.000000000	 0.347242448	 0.480095912	 0.549797594	 0.753621013	 0.753621013	 0.753622489	 0.753622489
 0.000000000	 0.421318708	 0.642627047	 0.706164423	 0.926904765	 0.926904765	 0.927299225	 0.927299225
 0.000000000	 0.354840867	 0.652293289	 0.682963673	 0.794645576	 0.794645576	 0.794675881	 0.794675881
 0.000000000	 0.233889489	 0.349940160	 0.373088295	 0.453202651	 0.453202651	 0.453302746	 0.453302746
 0.000000000	 0.231646811	 0.181831351	 0.245687659	 0.418165295	 0.418165295	 0.418213399	 0.418213399
 0.000000000	 0.255608593	 0.366769765	 0.399765823	 0.511102469	 0.511102469	 0.511105348	 0.511105348
 0.000000000	 0.205715633	 0.166460824	 0.252913094	 0.464933611	 0.464933611	 0.464988838	 0.464988838
 0.000000000	 0.241269806	 0.255364813	 0.266066161	 0.271373866	 0.271373866	 0.271376106	 0.271376106
 0.000000000	 0.494855468	 0.600856276	 0.631924094	 0.663504195	 0.663504195	 0.663521541	 0.663521541
 0.000000000	 0.587817268	 0.704778668	 0.750967584	 0.787361837	 0.787361837	 0.787429184	 0.787429184
 0.000000000	 0.555089685	 0.638212148	 0.711360658	 0.731757655	 0.731757655	 0.731783102	 0.731783102
 0.000000000	 0.437097192	 0.292850118	 0.464309515	 0.537268477	 0.537268477	 0.537347792	 0.537347792
 0.000000000	 0.522594471	 0.089859791	 0.528009729	 0.679384354	 0.679384354	 0.679384854	 0.679384854
 0.000000000	 0.486881497	 0.593798842	 0.706100268	 0.862644146	 0.862644146	 0.862704945	 0.862704945
 0.000000000	 0.565437707	 0.778617981	 0.852785625	 0.994430921	 0.994430921	 0.994638629	 0.994638629
 0.000000000	 0.238814630	 0.329625056	 0.350894592	 0.399802007	 0.399802007	 0.399849269	 0.399849269
 0.000000000	 0.267550633	 0.205298707	 0.321206884	 0.475274891	 0.475274888	 0.475385943	 0.475385943
 0.000000000	 0.103064535	 0.020101897	 0.103963986	 0.144065854	 0.144065854	 0.144089844	 0.144089844
 0.000000000	 0.157057956	 0.164074448	 0.190173694	 0.267363814	 0.267363814	 0.267367160	 0.267367160
 0.000000000	 0.242753784	 0.307595319	 0.324855204	 0.329499273	 0.329499273	 0.329503978	 0.329503978
 0.000000000	 0.146789193	 0.108482934	 0.167538561	 0.249361226	 0.249361226	 0.249372820	 0.249372820
 0.000000000	 0.098924381	 0.099136816	 0.115282125	 0.140887108	 0.140887108	 0.140895440	 0.140895440
 0.000000000	 0.057380564	 0.043516015	 0.062437603	 0.109162978	 0.109162977	 0.109188434	 0.109188434
 0.000000000	 0.064758863	 0.018980459	 0.065204780	 0.136483099	 0.136483099	 0.136553195	 0.136553195
 0.000000000	 0.108225650	 0.182791144	 0.184622531	 0.185594858	 0.185594857	 0.185616097	 0.185616097
 0.000000000	 0.264587395	 0.135627015	 0.283234313	 0.562322726	 0.562322722	 0.562427731	 0.562427731
 0.000000000	 0.253968229	 0.371876902	 0.400117121	 0.490770394	 0.490770394	 0.490801648	 0.490801648
 0.000000000	 0.196139534	 0.192438733	 0.252241964	 0.339638020	 0.339638020	 0.339844010	 0.339844010
 0.000000000	 0.167248286	 0.265569585	 0.289739063	 0.357291287	 0.357291287	 0.357341847	 0.357341847
 0.000000000	 0.212858564	 0.232971482	 0.294419131	 0.457766507	 0.457766507	 0.457847822	 0.457847822
 0.000000000	 0.085390629	 0.128811319	 0.143548634	 0.189049469	 0.189049469	 0.189105733	 0.189105733
 0.000000000	 0.416537897	 0.563963344	 0.656368246	 0.893039528	 0.893039528	 0.893189616	 0.893189616
 0.000000000	 0.320915021	 0.407664992	 0.470173664	 0.601930570	 0.601930570	 0.602568929	 0.602568929
 0.000000000	 0.145507857	 0.242921050	 0.250863504	 0.265161100	 0.265161100	 0.265165384	 0.265165384
 0.000000000	 0.232697472	 0.202255347	 0.293492135	 0.466193768	 0.466193765	 0.466453341	 0.466453341
 0.000000000	 0.252465164	 0.350917735	 0.398360958	 0.537929640	 0.537929640	 0.538337735	 0.538337735
 0.000000000	 0.469341366	 0.551916830	 0.681521856	 1.008769914	 1.008769915	 1.009106561	 1.009106561
 0.000000000	 0.412148706	 0.481320140	 0.589863561	 0.877533576	 0.877533577	 0.879222701	 0.879222701
 0.000000000	 0.428798758	 0.452247861	 0.589438369	 0.926258718	 0.926258719	 0.926808032	 0.926808032
 0.000000000	 0.264830652	 0.308729472	 0.381950786	 0.569015763	 0.569015763	 0.570164674	 0.570164674
 0.000000000	 0.439323421	 0.430180128	 0.584719891	 0.949760041	 0.949760041	 0.950880668	 0.950880668
 0.000000000	 0.494298400	 0.527353909	 0.672257074	 1.043106713	 1.043106713	 1.046359019	 1.046359019
 0.000000000	 0.440999353	 0.487150968	 0.618743283	 0.950469339	 0.950469339	 0.951298943	 0.951298943
 0.000000000	 0.530092062	 0.651546391	 0.785225362	 1.145541524	 1.145541524	 1.148462027	 1.148462027
 0.000000000	 0.066753854	 0.113205033	 0.120271574	 0.142622073	 0.142622072	 0.142634733	 0.142634733
 0.000000000	 0.124978262	 0.211665267	 0.213976552	 0.215457615	 0.215457615	 0.215484115	 0.215484115
 0.000000000	 0.126315987	 0.176516120	 0.201969231	 0.266744451	 0.266744451	 0.266897394	 0.266897394
 0.000000000	 0.045143699	 0.076360632	 0.080533618	 0.081762328	 0.081762300	 0.081795859	 0.081795859
 0.000000000	 0.102696796	 0.121298694	 0.149274800	 0.189536608	 0.189536608	 0.189588179	 0.189588179
 0.000000000	 0.117015389	 0.166425979	 0.189559144	 0.252858470	 0.252858469	 0.252914603	 0.252914603
 0.000000000	 0.038139739	 0.048402332	 0.054982508	 0.062440623	 0.062440610	 0.062448054	 0.062448054
 0.000000000	 0.052206012	 0.031233309	 0.054773568	 0.077189993	 0.077189992	 0.077256943	 0.077256943
 0.000000000	 0.183855109	 0.173277345	 0.241812810	 0.400650657	 0.400650657	 0.401035422	 0.401035422
 0.000000000	 0.192321783	 0.217520670	 0.272108964	 0.406759927	 0.406759927	 0.407258278	 0.407258278
 0.000000000	 0.299821306	 0.362522583	 0.438508570	 0.648526505	 0.648526505	 0.649855910	 0.649855910
 0.000000000	 0.054988476	 0.098143584	 0.099713911	 0.104459876	 0.104459876	 0.104551327	 0.104551327
 0.000000000	 0.231082416	 0.221875292	 0.299687445	 0.489445853	 0.489445853	 0.490012180	 0.490012180
 0.000000000	 0.106521052	 0.122840210	 0.151701947	 0.229453213	 0.229453211	 0.229868993	 0.229868993
 0.000000000	 0.233108501	 0.270252925	 0.335404637	 0.503324662	 0.503324662	 0.504033671	 0.504033671
 0.000000000	 0.358616801	 0.496336851	 0.571231670	 0.789859604	 0.789859605	 0.790189326	 0.790189326
 0.000000000	 0.450066417	 0.566056198	 0.671732927	 0.969168137	 0.969168137	 0.970903252	 0.970903252
 0.000000000	 0.382998089	 0.578837881	 0.641187097	 0.834449746	 0.834449747	 0.834577518	 0.834577518
 0.000000000	 0.426782246	 0.581719318	 0.669833683	 0.928827533	 0.928827533	 0.930096546	 0.930096546
 0.000000000	 0.260719960	 0.412182629	 0.445469609	 0.553429221	 0.553429220	 0.553461902	 0.553461902
 0.000000000	 0.297988959	 0.412924049	 0.474575849	 0.631877704	 0.631877704	 0.632298743	 0.632298743
 0.000000000	 0.135781605	 0.147116802	 0.152085797	 0.158372969	 0.158372964	 0.158391532	 0.158391532
 0.000000000	 0.376824270	 0.585466705	 0.636454958	 0.802633771	 0.802633770	 0.802659275	 0.802659275
 0.000000000	 0.405706105	 0.606533860	 0.677605129	 0.872300851	 0.872300851	 0.872963485	 0.872963485
 0.000000000	 0.062469934	 0.063594410	 0.082723973	 0.090710388	 0.090710388	 0.090711050	 0.090711050
 0.000000000	 0.191163065	 0.166299139	 0.232265007	 0.371521660	 0.371521660	 0.371660983	 0.371660983
 0.000000000	 0.069007945	 0.134174330	 0.138374229	 0.154398129	 0.154398129	 0.154408137	 0.154408137
 0.000000000	 0.160565020	 0.056545509	 0.168338910	 0.273309100	 0.273309100	 0.273392245	 0.273392245
 0.000000000	 0.110357492	 0.117360493	 0.139174552	 0.179723676	 0.179723676	 0.179724220	 0.179724220
 0.000000000	 0.113273017	 0.132583429	 0.153132390	 0.163100057	 0.163100057	 0.163105390	 0.163105390
 0.000000000	 0.172167193	 0.146387393	 0.214966335	 0.366225189	 0.366225183	 0.366303820	 0.366303820
 0.000000000	 0.040111396	 0.030018093	 0.043935429	 0.059231569	 0.059231569	 0.059246970	 0.059246970
 0.000000000	 0.072599518	 0.078331721	 0.084416042	 0.098289499	 0.098289494	 0.098290889	 0.098290889
 0.000000000	 0.089208946	 0.037873483	 0.094363124	 0.187951881	 0.187951878	 0.188006786	 0.188006786
 0.000000000	 0.081323136	 0.095866066	 0.115401933	 0.139793893	 0.139793893	 0.139798962	 0.139798962
 0.000000000	 0.110280452	 0.115003558	 0.149740090	 0.168890617	 0.168890617	 0.168948234	 0.168948234
 0.000000000	 0.202961450	 0.209183878	 0.232986454	 0.246922940	 0.246922940	 0.246937882	 0.246937882
 0.000000000	 0.105088074	 0.175420050	 0.179639142	 0.184714975	 0.184714974	 0.184745870	 0.184745870
 0.000000000	 0.309836110	 0.276598982	 0.338075287	 0.454794731	 0.454794731	 0.454841942	 0.454841942
 0.000000000	 0.450265520	 0.682854846	 0.692508314	 0.695015190	 0.695015190	 0.695029107	 0.695029107
 0.000000000	 0.357282799	 0.559273079	 0.602596127	 0.612163940	 0.612163938	 0.612497081	 0.612497081
 0.000000000	 0.342133774	 0.361888745	 0.466797917	 0.532299952	 0.532299955	 0.532364109	 0.532364109
 0.000000000	 0.756829958	 1.253816174	 1.327899916	 1.457764288	 1.457764288	 1.457781354	 1.457781354
 0.000000000	 0.633793932	 1.069674534	 1.136158160	 1.200411486	 1.200411486	 1.201816994	 1.201816994
 0.000000000	 0.446982751	 0.060496708	 0.450003552	 0.576977674	 0.576977674	 0.577000395	 0.577000395
 0.000000000	 0.420409444	 0.157771609	 0.442548034	 0.530877494	 0.530877494	 0.530878177	 0.530878177
 0.000000000	 0.351012723	 0.450435827	 0.465541909	 0.517098862	 0.517098862	 0.517234763	 0.517234763
 0.000000000	 0.360461676	 0.389492627	 0.417109171	 0.423485053	 0.423485053	 0.423501906	 0.423501906
 0.000000000	 0.102679790	 0.178594523	 0.191990641	 0.222494604	 0.222494606	 0.222501938	 0.222501938
 0.000000000	 0.363422965	 0.468755656	 0.515210494	 0.617203625	 0.617203625	 0.617204456	 0.617204456
 0.000000000	 0.331273834	 0.504059796	 0.547986008	 0.680525273	 0.680525274	 0.680680665	 0.680680665
 0.000000000	 0.297847104	 0.465329862	 0.515553685	 0.634250877	 0.634250877	 0.634255553	 0.634255553
 0.000000000	 0.289428778	 0.542744455	 0.568235362	 0.665909952	 0.665909952	 0.666025773	 0.666025773
 0.000000000	 0.276672565	 0.391617122	 0.439658386	 0.581908438	 0.581908438	 0.581911744	 0.581911744
 0.000000000	 0.231983590	 0.301618765	 0.330458866	 0.431344996	 0.431344996	 0.431415364	 0.431415364
 0.000000000	 0.257222614	 0.258402709	 0.308411191	 0.445803941	 0.445803941	 0.445807636	 0.445807636
 0.000000000	 0.326166767	 0.306096077	 0.368798031	 0.561021356	 0.561021356	 0.561156231	 0.561156231
 0.000000000	 0.329042021	 0.249247924	 0.351013791	 0.614751424	 0.614751424	 0.614754106	 0.614754106
 0.000000000	 0.427542724	 0.336889498	 0.491663962	 0.886157936	 0.886157937	 0.886449149	 0.886449149
 0.000000000	 0.381520243	 0.385045270	 0.484536685	 0.765314281	 0.765314281	 0.765346120	 0.765346120
 0.000000000	 0.341186840	 0.379245849	 0.451812265	 0.673979800	 0.673979800	 0.674106003	 0.674106003
 0.000000000	 0.309283541	 0.279794458	 0.374490266	 0.626247109	 0.626247109	 0.626253038	 0.626253038
 0.000000000	 0.220660382	 0.217820568	 0.257214207	 0.276538219	 0.276538219	 0.276539564	 0.276539564
 0.000000000	 0.277356222	 0.274241175	 0.364248900	 0.603375112	 0.603375110	 0.603551308	 0.603551308
 0.000000000	 0.474331700	 0.236945000	 0.518044287	 1.027158056	 1.027158056	 1.027162506	 1.027162506
 0.000000000	 0.440531592	 0.377702280	 0.551646720	 0.966005791	 0.966005791	 0.966817790	 0.966817790
 0.000000000	 0.390349204	 0.587664820	 0.648316759	 0.825637938	 0.825637937	 0.825642316	 0.825642316
 0.000000000	 0.345404233	 0.191232838	 0.384484723	 0.754254188	 0.754254187	 0.754683739	 0.754683739
 0.000000000	 0.224880168	 0.276135816	 0.331574724	 0.419779332	 0.419779331	 0.419780167	 0.419780167
 0.000000000	 0.164655766	 0.087581920	 0.182692343	 0.336322306	 0.336322306	 0.336378473	 0.336378473
 0.000000000	 0.242876211	 0.223642244	 0.310239702	 0.498624413	 0.498624411	 0.498739908	 0.498739908
 0.000000000	 0.078028557	 0.030979892	 0.082356384	 0.157598435	 0.157598435	 0.157767310	 0.157767310
 0.000000000	 0.051423491	 0.039005785	 0.058896677	 0.101812891	 0.101812891	 0.101940406	 0.101940406
 0.000000000	 0.144620213	 0.098567407	 0.167575766	 0.301010216	 0.301010216	 0.301350798	 0.301350798
 0.000000000	 0.076577616	 0.032089491	 0.078363891	 0.140702850	 0.140702850	 0.140802539	 0.140802539
 0.000000000	 0.213076165	 0.220625080	 0.289316193	 0.447205087	 0.447205087	 0.447438295	 0.447438295
 0.000000000	 0.089762354	 0.131469989	 0.146150261	 0.153521604	 0.153521604	 0.153522253	 0.153522253
 0.000000000	 0.197208637	 0.142657705	 0.234417717	 0.427010970	 0.427010968	 0.427058138	 0.427058138
 0.000000000	 0.105806673	 0.068585799	 0.114151415	 0.200829554	 0.200829552	 0.200935699	 0.200935699
 0.000000000	 0.233879923	 0.030901674	 0.234978095	 0.484033564	 0.484033564	 0.484472065	 0.484472065
 0.000000000	 0.358840298	 0.055797535	 0.361519203	 0.778192308	 0.778192308	 0.778389936	 0.778389936
 0.000000000	 0.302607436	 0.118344258	 0.316201502	 0.653133225	 0.653133225	 0.654090611	 0.654090611
 0.000000000	 0.286815358	 0.215698013	 0.333519752	 0.595339741	 0.595339741	 0.595532311	 0.595532311
 0.000000000	 0.357221504	 0.157251675	 0.373873555	 0.764558552	 0.764558551	 0.765546488	 0.765546488
 0.000000000	 0.389480842	 0.057841641	 0.390681348	 0.826610711	 0.826610711	 0.826778692	 0.826778692
 0.000000000	 0.271688511	 0.043433251	 0.274982478	 0.592031700	 0.592031700	 0.592841457	 0.592841457
 0.000000000	 0.233778539	 0.102386312	 0.252273242	 0.489167395	 0.489167393	 0.489368627	 0.489368627
 0.000000000	 0.060819949	 0.127389639	 0.128140113	 0.128349198	 0.128349204	 0.128349204	 0.128349204
 0.000000000	 0.152607640	 0.070585605	 0.165682879	 0.333498222	 0.333498224	 0.333866238	 0.333866238
 0.000000000	 0.345720199	 0.120975034	 0.362552392	 0.636697152	 0.636697152	 0.637047051	 0.637047051
 0.000000000	 0.200492499	 0.316273605	 0.344403675	 0.426284864	 0.426284867	 0.426622677	 0.426622677
 0.000000000	 0.275816933	 0.471931775	 0.500546876	 0.539513938	 0.539513937	 0.539530347	 0.539530347
 0.000000000	 0.224974601	 0.357458656	 0.386837372	 0.469532805	 0.469532806	 0.469920061	 0.469920061
 0.000000000	 0.323466051	 0.066762051	 0.326606690	 0.633966490	 0.633966490	 0.634623424	 0.634623424
 0.000000000	 0.097358222	 0.084540612	 0.122443976	 0.184919868	 0.184919876	 0.185183463	 0.185183463
 0.000000000	 0.109721163	 0.082584062	 0.128291062	 0.146744407	 0.146744405	 0.146848389	 0.146848389
 0.000000000	 0.172485948	 0.077716285	 0.186220224	 0.304677086	 0.304677086	 0.305250789	 0.305250789
 0.000000000	 0.137045433	 0.207944532	 0.222972165	 0.246446403	 0.246446404	 0.246754894	 0.246754894
 0.000000000	 0.162358551	 0.248210352	 0.267052220	 0.281853774	 0.281853777	 0.282140597	 0.282140597
 0.000000000	 0.156108746	 0.085722417	 0.172932169	 0.197155204	 0.197155203	 0.197222589	 0.197222589
 0.000000000	 0.081875160	 0.117058638	 0.130729754	 0.158959354	 0.158959353	 0.159137057	 0.159137057
 0.000000000	 0.103091947	 0.039085647	 0.104591468	 0.203979650	 0.203979646	 0.204827692	 0.204827692
 0.000000000	 0.184556860	 0.249456938	 0.285171360	 0.359350048	 0.359350049	 0.359626225	 0.359626225
 0.000000000	 0.228415776	 0.227873222	 0.295819798	 0.385662083	 0.385662083	 0.386957939	 0.386957939
 0.000000000	 0.247831556	 0.057685244	 0.250789124	 0.474925484	 0.474925484	 0.477710541	 0.477710541
 0.000000000	 0.322897790	 0.159115765	 0.348473574	 0.627956902	 0.627956902	 0.630400427	 0.630400427
 0.000000000	 0.187328527	 0.179019071	 0.231180449	 0.300503188	 0.300503189	 0.302076060	 0.302076060
 0.000000000	 0.126654404	 0.042845222	 0.129408310	 0.246069880	 0.246069880	 0.247088218	 0.247088218
 0.000000000	 0.145778333	 0.072651342	 0.159640664	 0.211496425	 0.211496425	 0.212224950	 0.212224950
 0.000000000	 0.247032079	 0.222339710	 0.308162231	 0.397024578	 0.397024579	 0.399013812	 0.399013812
 0.000000000	 0.141732547	 0.024422199	 0.142026384	 0.246339114	 0.246339114	 0.247345743	 0.247345743
 0.000000000	 0.210506410	 0.151429275	 0.250516366	 0.433270267	 0.433270267	 0.434971318	 0.434971318
 0.000000000	 0.137569164	 0.248142961	 0.252074031	 0.262178039	 0.262178039	 0.262209699	 0.262209699
 0.000000000	 0.198666032	 0.094747309	 0.217308492	 0.374990524	 0.374990524	 0.377664148	 0.377664148
 0.000000000	 0.293466658	 0.199913364	 0.336799930	 0.506591689	 0.506591689	 0.510780599	 0.510780599
 0.000000000	 0.084159049	 0.129759631	 0.141585769	 0.176784276	 0.176784276	 0.177193784	 0.177193784
 0.000000000	 0.158589816	 0.080720324	 0.172628628	 0.298491767	 0.298491763	 0.300649910	 0.300649910
 0.000000000	 0.343500242	 0.369316652	 0.474576162	 0.630056719	 0.630056719	 0.632391852	 0.632391852
 0.000000000	 0.159095008	 0.042812700	 0.161694385	 0.342254635	 0.342254633	 0.343483110	 0.343483110
 0.000000000	 0.155317234	 0.096793871	 0.161415424	 0.289851074	 0.289851076	 0.290593209	 0.290593209
 0.000000000	 0.188784463	 0.144540716	 0.231727390	 0.323034815	 0.323034815	 0.323692610	 0.323692610
 0.000000000	 0.183877298	 0.077011501	 0.187005577	 0.300871968	 0.300871968	 0.301647079	 0.301647079
 0.000000000	 0.236736244	 0.300098209	 0.361781965	 0.495411640	 0.495411640	 0.496009195	 0.496009195
 0.000000000	 0.164708543	 0.019330073	 0.164874666	 0.222437317	 0.222437316	 0.223225283	 0.223225283
 0.000000000	 0.120502987	 0.096304157	 0.139458611	 0.154719769	 0.154719760	 0.154722391	 0.154722391
 0.000000000	 0.237129743	 0.144423469	 0.256199356	 0.389085795	 0.389085794	 0.390541555	 0.390541555
 0.000000000	 0.116594395	 0.104688556	 0.145999444	 0.179895871	 0.179895864	 0.180335070	 0.180335070
 0.000000000	 0.109400802	 0.104695670	 0.132705315	 0.169409986	 0.169409986	 0.169511251	 0.169511251
 0.000000000	 0.285584590	 0.088973544	 0.298078193	 0.587041760	 0.587041762	 0.588908245	 0.588908245
 0.000000000	 0.205746281	 0.187015606	 0.252912478	 0.422554384	 0.422554384	 0.422991504	 0.422991504
 0.000000000	 0.175906378	 0.318046709	 0.329612323	 0.360390236	 0.360390235	 0.360747172	 0.360747172
 0.000000000	 0.395076296	 0.693613086	 0.729039497	 0.852525613	 0.852525614	 0.853257813	 0.853257813
 0.000000000	 0.284739756	 0.541803914	 0.557672039	 0.582163363	 0.582163364	 0.582568130	 0.582568130
 0.000000000	 0.238817903	 0.181501829	 0.286636361	 0.537930707	 0.537930707	 0.538356511	 0.538356511
 0.000000000	 0.461284957	 0.333597960	 0.553872897	 1.014266337	 1.014266337	 1.016021421	 1.016021421
 0.000000000	 0.232811847	 0.319962273	 0.369932673	 0.529700202	 0.529700200	 0.529786602	 0.529786602
 0.000000000	 0.178489514	 0.107308123	 0.186493733	 0.298440161	 0.298440159	 0.298611692	 0.298611692
 0.000000000	 0.310751402	 0.133960223	 0.319722582	 0.679796684	 0.679796684	 0.680702499	 0.680702499
 0.000000000	 0.152813728	 0.220850573	 0.234823085	 0.271673262	 0.271673268	 0.271724246	 0.271724246
 0.000000000	 0.255646043	 0.183252574	 0.280828742	 0.514683563	 0.514683563	 0.514821632	 0.514821632
 0.000000000	 0.403803180	 0.127402858	 0.419208701	 0.948577368	 0.948577368	 0.949383622	 0.949383622
 0.000000000	 0.182414534	 0.110276974	 0.192947577	 0.361735033	 0.361735034	 0.361752877	 0.361752877
 0.000000000	 0.197191957	 0.121055838	 0.205410869	 0.242699502	 0.242699503	 0.242722847	 0.242722847
 0.000000000	 0.255173433	 0.280915215	 0.321248069	 0.423226274	 0.423226267	 0.423278455	 0.423278455
 0.000000000	 0.369029565	 0.430636232	 0.476424561	 0.488089936	 0.488089936	 0.488098415	 0.488098415
 0.000000000	 0.200081783	 0.383833534	 0.397633741	 0.443930077	 0.443930077	 0.443951266	 0.443951266
 0.000000000	 0.084454868	 0.087372174	 0.109889880	 0.122778444	 0.122778417	 0.122778417	 0.122778417
 0.000000000	 0.186401849	 0.097874552	 0.191682059	 0.263130510	 0.263130510	 0.263132043	 0.263132043
 0.000000000	 0.273872371	 0.247843856	 0.294197755	 0.330428397	 0.330428397	 0.330434352	 0.330434352
 0.000000000	 0.451872224	 0.402417954	 0.564510298	 0.600001767	 0.600001767	 0.600030261	 0.600030261
 0.000000000	 0.212425493	 0.317182415	 0.354080286	 0.472259492	 0.472259491	 0.472265990	 0.472265990
 0.000000000	 0.338331319	 0.297770533	 0.427306513	 0.452929716	 0.452929724	 0.452929724	 0.452929724
 0.000000000	 0.365941279	 0.733462535	 0.754005786	 0.833992675	 0.833992675	 0.834101023	 0.834101023
 0.000000000	 0.505496490	 0.323267276	 0.566827516	 0.712805189	 0.712805189	 0.712837869	 0.712837869
 0.000000000	 0.343008867	 0.595163918	 0.634748540	 0.650579444	 0.650579445	 0.650579445	 0.650579445
 0.000000000	 0.422903162	 0.845935441	 0.875965032	 0.921993106	 0.921993106	 0.922186210	 0.922186210
 0.000000000	 0.323930966	 0.364080434	 0.461069643	 0.544377209	 0.544377209	 0.544381780	 0.544381780
 0.000000000	 0.304151008	 0.299038798	 0.366003600	 0.392512534	 0.392512533	 0.392517854	 0.392517854
 0.000000000	 0.118349426	 0.256646168	 0.259592193	 0.261451823	 0.261451823	 0.261460394	 0.261460394
 0.000000000	 0.178822686	 0.209605224	 0.231216928	 0.286502667	 0.286502660	 0.286514096	 0.286514096
 0.000000000	 0.085665993	 0.107688071	 0.120876090	 0.168269793	 0.168269787	 0.168270405	 0.168270405
 0.000000000	 0.131650142	 0.150262106	 0.175277840	 0.254268726	 0.254268726	 0.254269075	 0.254269075
 0.000000000	 0.096459770	 0.177956213	 0.185000581	 0.203882543	 0.203882526	 0.203882987	 0.203882987
 0.000000000	 0.086639662	 0.122930738	 0.137071681	 0.186823994	 0.186823994	 0.186832144	 0.186832144
 0.000000000	 0.104629024	 0.171559411	 0.186963497	 0.243836028	 0.243836028	 0.243837564	 0.243837564
 0.000000000	 0.055937015	 0.058825755	 0.076818050	 0.126165127	 0.126165127	 0.126167472	 0.126167472
 0.000000000	 0.224948658	 0.230948701	 0.289342371	 0.457157577	 0.457157577	 0.457176834	 0.457176834
 0.000000000	 0.087613337	 0.060545296	 0.100787569	 0.200277498	 0.200277498	 0.200279849	 0.200279849
 0.000000000	 0.103811687	 0.141081448	 0.147611754	 0.162024524	 0.162024525	 0.162025411	 0.162025411
 0.000000000	 0.080242650	 0.118678513	 0.123465449	 0.131205746	 0.131205746	 0.131205807	 0.131205807
 0.000000000	 0.096405814	 0.152736479	 0.163353873	 0.203020099	 0.203020099	 0.203029118	 0.203029118
 0.000000000	 0.148116291	 0.131214111	 0.181386087	 0.191346789	 0.191346789	 0.191347864	 0.191347864
 0.000000000	 0.168993280	 0.203239473	 0.218841534	 0.246227149	 0.246227149	 0.246230039	 0.246230039
 0.000000000	 0.185753677	 0.386930601	 0.396048577	 0.410250630	 0.410250630	 0.410263694	 0.410263694
 0.000000000	 0.332336061	 0.327406043	 0.441546025	 0.594138257	 0.594138256	 0.594161695	 0.594161695
 0.000000000	 0.199593461	 0.255914080	 0.270127203	 0.273106334	 0.273106338	 0.273110627	 0.273110627
 0.000000000	 0.183244109	 0.130267755	 0.214882523	 0.394493411	 0.394493405	 0.394644476	 0.394644476
 0.000000000	 0.196121991	 0.188851029	 0.225604579	 0.232960926	 0.232960919	 0.232961109	 0.232961109
 0.000000000	 0.237112231	 0.057017252	 0.238703870	 0.505656364	 0.505656368	 0.506041104	 0.506041104
 0.000000000	 0.165885989	 0.212769478	 0.251358025	 0.276805542	 0.276805542	 0.276911197	 0.276911197
 0.000000000	 0.168730660	 0.077262007	 0.173930271	 0.234543916	 0.234543909	 0.234708997	 0.234708997
 0.000000000	 0.119785459	 0.204150811	 0.219415740	 0.246838513	 0.246838516	 0.246915476	 0.246915476
 0.000000000	 0.327465182	 0.232426386	 0.391828643	 0.636448688	 0.636448688	 0.637071150	 0.637071150
 0.000000000	 0.087704828	 0.170215544	 0.176215154	 0.195564730	 0.195564738	 0.195674447	 0.195674447
 0.000000000	 0.194146067	 0.181219670	 0.240887903	 0.374368540	 0.374368540	 0.374917313	 0.374917313
 0.000000000	 0.205433369	 0.172749361	 0.257917962	 0.407815571	 0.407815571	 0.408262328	 0.408262328
 0.000000000	 0.203008398	 0.413245895	 0.415938197	 0.425997602	 0.425997604	 0.426024641	 0.426024641
 0.000000000	 0.225353766	 0.274058152	 0.335853771	 0.484561890	 0.484561890	 0.485052264	 0.485052264
 0.000000000	 0.143297943	 0.136372065	 0.185548587	 0.286784987	 0.286784990	 0.287402741	 0.287402741
 0.000000000	 0.117854311	 0.110499429	 0.155448865	 0.267519888	 0.267519888	 0.267997276	 0.267997276
 0.000000000	 0.101172064	 0.026905460	 0.101948301	 0.214630176	 0.214630176	 0.215315698	 0.215315698
 0.000000000	 0.288817593	 0.055654970	 0.294761018	 0.605654264	 0.605654266	 0.607948867	 0.607948867
 0.000000000	 0.107774848	 0.213483070	 0.218209306	 0.219962823	 0.219962823	 0.219963585	 0.219963585
 0.000000000	 0.037310374	 0.036655253	 0.044749221	 0.062163613	 0.062163611	 0.062235484	 0.062235484
 0.000000000	 0.122250405	 0.152894417	 0.175459325	 0.189828601	 0.189828601	 0.190009957	 0.190009957
 0.000000000	 0.172991584	 0.128549125	 0.203954803	 0.228010287	 0.228010283	 0.228211136	 0.228211136
 0.000000000	 0.139499390	 0.073736496	 0.151304329	 0.174614892	 0.174614892	 0.174748354	 0.174748354
 0.000000000	 0.194765347	 0.170209111	 0.243022488	 0.286892062	 0.286892062	 0.287157056	 0.287157056
 0.000000000	 0.141306131	 0.048515826	 0.146576462	 0.182455581	 0.182455581	 0.182588354	 0.182588354
 0.000000000	 0.098643313	 0.097413103	 0.120323081	 0.138756733	 0.138756720	 0.138817348	 0.138817348
 0.000000000	 0.218920567	 0.055423869	 0.226447367	 0.361284747	 0.361284747	 0.361563842	 0.361563842
 0.000000000	 0.165948941	 0.076655038	 0.181055233	 0.242280078	 0.242280078	 0.242343557	 0.242343557
 0.000000000	 0.371861636	 0.235313729	 0.435876679	 0.629909466	 0.629909466	 0.629969306	 0.629969306
 0.000000000	 0.158878870	 0.216979886	 0.249449594	 0.353943068	 0.353943067	 0.354133767	 0.354133767
 0.000000000	 0.224369080	 0.231968559	 0.307351639	 0.329811074	 0.329811074	 0.329816643	 0.329816643
 0.000000000	 0.198499835	 0.086665250	 0.204947004	 0.382040236	 0.382040236	 0.382275695	 0.382275695
 0.000000000	 0.171390212	 0.225531766	 0.265893957	 0.390381263	 0.390381262	 0.390709578	 0.390709578
 0.000000000	 0.067825283	 0.090995845	 0.105506820	 0.124612028	 0.124612028	 0.124632849	 0.124632849
 0.000000000	 0.083645143	 0.081971402	 0.091924933	 0.095068905	 0.095068901	 0.095074959	 0.095074959
 0.000000000	 0.250248785	 0.365994229	 0.415365553	 0.575248065	 0.575248065	 0.575526032	 0.575526032
 0.000000000	 0.151078934	 0.283247396	 0.296713127	 0.341733153	 0.341733154	 0.341733154	 0.341733154
 0.000000000	 0.112899539	 0.050059996	 0.120535842	 0.181909762	 0.181909762	 0.181979127	 0.181979127
 0.000000000	 0.245087872	 0.205893758	 0.309539311	 0.416367914	 0.416367915	 0.416562700	 0.416562700
 0.000000000	 0.375848103	 0.401095130	 0.516318965	 0.646575956	 0.646575955	 0.646601182	 0.646601182
 0.000000000	 0.295059203	 0.197792849	 0.331324129	 0.359128142	 0.359128142	 0.359137451	 0.359137451
 0.000000000	 0.137914265	 0.008042327	 0.137981314	 0.279694700	 0.279694701	 0.279996007	 0.279996007
 0.000000000	 0.191158038	 0.301926895	 0.325676965	 0.387224072	 0.387224072	 0.387302679	 0.387302679
 0.000000000	 0.196453204	 0.176689823	 0.253136792	 0.378563855	 0.378563853	 0.378949730	 0.378949730
 0.000000000	 0.186862337	 0.184543527	 0.246007205	 0.392798414	 0.392798415	 0.393003605	 0.393003605
 0.000000000	 0.184448308	 0.328207359	 0.337166272	 0.366152695	 0.366152695	 0.366312638	 0.366312638
 0.000000000	 0.337638388	 0.229865868	 0.396298262	 0.669739803	 0.669739803	 0.670340911	 0.670340911
 0.000000000	 0.195032355	 0.163015263	 0.244145714	 0.423136459	 0.423136458	 0.423182753	 0.423182753
 0.000000000	 0.065314089	 0.108554052	 0.115780322	 0.136746374	 0.136746375	 0.136768411	 0.136768411
 0.000000000	 0.185650122	 0.264337140	 0.297317119	 0.324792726	 0.324792727	 0.324838745	 0.324838745
 0.000000000	 0.240948729	 0.352341601	 0.390005363	 0.488255040	 0.488255039	 0.488295525	 0.488295525
 0.000000000	 0.143897570	 0.059712479	 0.146846921	 0.261056279	 0.261056279	 0.261285962	 0.261285962
 0.000000000	 0.543295739	 0.341669606	 0.618572374	 1.196299906	 1.196299906	 1.196978623	 1.196978623
 0.000000000	 0.287694345	 0.209000441	 0.326776692	 0.586801349	 0.586801349	 0.586837696	 0.586837696
 0.000000000	 0.229802706	 0.119208563	 0.242706849	 0.483381842	 0.483381844	 0.483405602	 0.483405602
 0.000000000	 0.103576270	 0.205777328	 0.209883975	 0.214659894	 0.214659894	 0.214673869	 0.214673869
 0.000000000	 0.279806121	 0.478785963	 0.501617128	 0.566705429	 0.566705429	 0.566799865	 0.566799865
 0.000000000	 0.174859846	 0.234377568	 0.238240686	 0.252010622	 0.252010622	 0.252042360	 0.252042360
 0.000000000	 0.205112724	 0.149588594	 0.229889647	 0.382345479	 0.382345479	 0.382356044	 0.382356044
 0.000000000	 0.156535060	 0.133307431	 0.169421018	 0.272340310	 0.272340308	 0.272412225	 0.272412225
 0.000000000	 0.223055889	 0.406047711	 0.411274168	 0.412589476	 0.412589475	 0.412589475	 0.412589475
 0.000000000	 0.330936119	 0.659254756	 0.677644516	 0.745745763	 0.745745763	 0.745766325	 0.745766325
 0.000000000	 0.139979462	 0.254898075	 0.255020712	 0.255540488	 0.255540482	 0.255548360	 0.255548360
 0.000000000	 0.130851266	 0.173772831	 0.202557326	 0.287273540	 0.287273540	 0.287340769	 0.287340769
 0.000000000	 0.155863163	 0.207471381	 0.241704471	 0.326531071	 0.326531071	 0.326551918	 0.326551918
 0.000000000	 0.160826965	 0.123383086	 0.187844306	 0.348067720	 0.348067720	 0.348073211	 0.348073211
 0.000000000	 0.042497870	 0.028134143	 0.046548101	 0.049847589	 0.049847571	 0.049848191	 0.049848191
 0.000000000	 0.212117034	 0.409589299	 0.420035872	 0.434647154	 0.434647154	 0.434651699	 0.434651699
 0.000000000	 0.170127014	 0.211800322	 0.254104720	 0.385348197	 0.385348196	 0.385452453	 0.385452453
 0.000000000	 0.198865483	 0.048601598	 0.203120135	 0.393900584	 0.393900584	 0.393942826	 0.393942826
 0.000000000	 0.248599311	 0.153000199	 0.276230834	 0.527121318	 0.527121319	 0.527121446	 0.527121446
 0.000000000	 0.152974572	 0.185678382	 0.222544598	 0.271340102	 0.271340102	 0.271360283	 0.271360283
 0.000000000	 0.181666683	 0.226090213	 0.258815498	 0.276673859	 0.276673857	 0.276691652	 0.276691652
 0.000000000	 0.151989902	 0.136291510	 0.172173736	 0.245875511	 0.245875511	 0.245882406	 0.245882406
 0.000000000	 0.158877846	 0.130617163	 0.177158966	 0.298211351	 0.298211351	 0.298255648	 0.298255648
 0.000000000	 0.151455495	 0.136512208	 0.172658148	 0.197396278	 0.197396267	 0.197396596	 0.197396596
 0.000000000	 0.147965751	 0.235197920	 0.248415257	 0.255889265	 0.255889265	 0.255889799	 0.255889799
 0.000000000	 0.231087840	 0.404051787	 0.425042728	 0.499012239	 0.499012239	 0.499041081	 0.499041081
 0.000000000	 0.193442740	 0.084541815	 0.206015500	 0.434601042	 0.434601042	 0.434602011	 0.434602011
 0.000000000	 0.191967329	 0.304249298	 0.331642532	 0.419902271	 0.419902271	 0.419911883	 0.419911883
 0.000000000	 0.022886162	 0.023523184	 0.026422718	 0.032007415	 0.032007415	 0.032012787	 0.032012787
 0.000000000	 0.058284551	 0.095090791	 0.103492266	 0.110679866	 0.110679866	 0.110682680	 0.110682680
 0.000000000	 0.044521709	 0.037566901	 0.055325022	 0.086956470	 0.086956441	 0.086980538	 0.086980538
 0.000000000	 0.030010343	 0.036821105	 0.041706173	 0.050097568	 0.050097567	 0.050103559	 0.050103559
 0.000000000	 0.040417909	 0.008034182	 0.041021483	 0.092912585	 0.092912555	 0.092943803	 0.092943803
 0.000000000	 0.087277073	 0.041580598	 0.093192224	 0.194754024	 0.194754024	 0.194807169	 0.194807169
 0.000000000	 0.028591399	 0.043407403	 0.048319012	 0.064884848	 0.064884846	 0.064891238	 0.064891238
 0.000000000	 0.035447675	 0.029724470	 0.043213362	 0.077484679	 0.077484676	 0.077494034	 0.077494034
 0.000000000	 0.030500557	 0.054477607	 0.055521559	 0.057825741	 0.057825741	 0.057827938	 0.057827938
 0.000000000	 0.051764241	 0.071236760	 0.073278417	 0.077851937	 0.077851936	 0.077854002	 0.077854002
 0.000000000	 0.063744265	 0.078257370	 0.084200151	 0.098207610	 0.098207603	 0.098212651	 0.098212651
 0.000000000	 0.053354236	 0.075852334	 0.081830262	 0.099361047	 0.099361045	 0.099368885	 0.099368885
 0.000000000	 0.021469934	 0.044913896	 0.045684684	 0.047536798	 0.047536798	 0.047538166	 0.047538166
 0.000000000	 0.030955714	 0.052852590	 0.053998318	 0.057537569	 0.057537569	 0.057539336	 0.057539336
 0.000000000	 0.028192663	 0.043815508	 0.047297384	 0.049550804	 0.049550784	 0.049552370	 0.049552370
 0.000000000	 0.024495938	 0.050533545	 0.050746529	 0.051045477	 0.051045477	 0.051045871	 0.051045871
 0.000000000	 0.026759702	 0.030419990	 0.038237823	 0.056190882	 0.056190879	 0.056201830	 0.056201830
 0.000000000	 0.014888621	 0.013532563	 0.019024544	 0.021326395	 0.021326394	 0.021326950	 0.021326950
 0.000000000	 0.029025930	 0.036026354	 0.041042159	 0.056504910	 0.056504910	 0.056514056	 0.056514056
 0.000000000	 0.032746208	 0.048102822	 0.053651262	 0.068835049	 0.068835049	 0.068846491	 0.068846491
 0.000000000	 0.015146214	 0.025350524	 0.027362320	 0.033648375	 0.033648368	 0.033652026	 0.033652026
 0.000000000	 0.044589572	 0.056070234	 0.067220705	 0.102061011	 0.102061010	 0.102081605	 0.102081605
 0.000000000	 0.019270846	 0.011240737	 0.021509316	 0.023220426	 0.023220481	 0.023220481	 0.023220481
 0.000000000	 0.044044394	 0.012595193	 0.044410362	 0.098934448	 0.098934428	 0.098969485	 0.098969485
 0.000000000	 0.040165174	 0.055383523	 0.063805516	 0.090621884	 0.090621876	 0.090649968	 0.090649968
 0.000000000	 0.025529896	 0.025173054	 0.028029169	 0.030117463	 0.030117463	 0.030118644	 0.030118644
 0.000000000	 0.032866779	 0.061536367	 0.062067386	 0.062191618	 0.062191618	 0.062191618	 0.062191618
 0.000000000	 0.017499608	 0.010496001	 0.019832976	 0.038952682	 0.038952682	 0.038966914	 0.038966914
 0.000000000	 0.013970417	 0.017457768	 0.020996380	 0.022501470	 0.022501470	 0.022501849	 0.022501849
 0.000000000	 0.030984264	 0.031521709	 0.039559102	 0.045490335	 0.045490335	 0.045494169	 0.045494169
 0.000000000	 0.036952081	 0.034888195	 0.048151400	 0.084004567	 0.084004566	 0.084028286	 0.084028286
 0.000000000	 0.047213030	 0.052390762	 0.064543113	 0.099850303	 0.099850289	 0.099867732	 0.099867732
 0.000000000	 0.021967475	 0.014387583	 0.023778322	 0.044798494	 0.044798481	 0.044812766	 0.044812766
 0.000000000	 0.068143059	 0.147041541	 0.147976277	 0.151808755	 0.151808753	 0.151814554	 0.151814554
 0.000000000	 0.027693923	 0.007440618	 0.027905817	 0.058912508	 0.058912508	 0.058938618	 0.058938618
 0.000000000	 0.010262028	 0.007073042	 0.011311348	 0.021093269	 0.021093269	 0.021099753	 0.021099753
 0.000000000	 0.048343849	 0.054940443	 0.062102973	 0.074574243	 0.074574241	 0.074579442	 0.074579442
 0.000000000	 0.045048242	 0.095723419	 0.096509374	 0.097444446	 0.097444445	 0.097444535	 0.097444535
 0.000000000	 0.036064580	 0.045300026	 0.052337315	 0.075734701	 0.075734700	 0.075758513	 0.075758513
 0.000000000	 0.058169850	 0.129048180	 0.129978085	 0.130951435	 0.130951418	 0.130955835	 0.130955835
 0.000000000	 0.057536898	 0.128430043	 0.129345059	 0.133175916	 0.133175914	 0.133180391	 0.133180391
 0.000000000	 0.008625504	 0.013580640	 0.014656797	 0.017900923	 0.017900918	 0.017904945	 0.017904945
 0.000000000	 0.048670132	 0.044887117	 0.062859601	 0.111552266	 0.111552260	 0.111596628	 0.111596628
 0.000000000	 0.018616210	 0.010341337	 0.019368531	 0.034305291	 0.034305290	 0.034320199	 0.034320199
 0.000000000	 0.037090636	 0.032723539	 0.039724683	 0.059241683	 0.059241680	 0.059261384	 0.059261384
 0.000000000	 0.040485595	 0.068392273	 0.071794970	 0.083750991	 0.083750984	 0.083772093	 0.083772093
 0.000000000	 0.021348714	 0.011291240	 0.022373466	 0.029852925	 0.029852925	 0.029858861	 0.029858861
 0.000000000	 0.021423376	 0.018188132	 0.022992436	 0.024274457	 0.024274457	 0.024275095	 0.024275095
 0.000000000	 0.034521116	 0.045210492	 0.053405186	 0.067112525	 0.067112524	 0.067124972	 0.067124972
 0.000000000	 0.024022314	 0.049861172	 0.050841307	 0.052583754	 0.052583754	 0.052584219	 0.052584219
 0.000000000	 0.020963576	 0.035895338	 0.038390431	 0.045796047	 0.045796047	 0.045805465	 0.045805465
 0.000000000	 0.017396744	 0.016051059	 0.019954636	 0.020763384	 0.020763390	 0.020763390	 0.020763390
 0.000000000	 0.046850444	 0.053238555	 0.062014706	 0.090791739	 0.090791734	 0.090820837	 0.090820837
 0.000000000	 0.033186054	 0.035640048	 0.046109898	 0.076457039	 0.076457037	 0.076479768	 0.076479768
 0.000000000	 0.028227667	 0.027576484	 0.030671255	 0.034413328	 0.034413328	 0.034416352	 0.034416352
 0.000000000	 0.044253175	 0.053926806	 0.065510998	 0.097970431	 0.097970429	 0.097999442	 0.097999442
 0.000000000	 0.019472879	 0.029247762	 0.029731972	 0.031452428	 0.031452428	 0.031455616	 0.031455616
 0.000000000	 0.018887740	 0.036322466	 0.037467554	 0.040245509	 0.040245509	 0.040247569	 0.040247569
 0.000000000	 0.039089144	 0.077490131	 0.080041769	 0.085491375	 0.085491375	 0.085496480	 0.085496480
 0.000000000	 0.050529816	 0.070783075	 0.079658987	 0.104167245	 0.104167244	 0.104197263	 0.104197263
 0.000000000	 0.018366604	 0.020163457	 0.024999245	 0.031872493	 0.031872493	 0.031878098	 0.031878098
 0.000000000	 0.023582832	 0.015317313	 0.027250282	 0.054036380	 0.054036379	 0.054058170	 0.054058170
 0.000000000	 0.019634499	 0.033050549	 0.035596430	 0.044283563	 0.044283563	 0.044294841	 0.044294841
 0.000000000	 0.037185669	 0.060886604	 0.065345024	 0.080338149	 0.080338149	 0.080355353	 0.080355353
 0.000000000	 0.036160936	 0.028170320	 0.038698356	 0.067341368	 0.067341358	 0.067368320	 0.067368320
 0.000000000	 0.063977983	 0.083783618	 0.098809811	 0.147430460	 0.147430444	 0.147495739	 0.147495739
 0.000000000	 0.014737174	 0.005515466	 0.015012636	 0.031885660	 0.031885660	 0.031898331	 0.031898331
 0.000000000	 0.013372491	 0.010466385	 0.016099818	 0.030023961	 0.030023961	 0.030035013	 0.030035012
 0.000000000	 0.016759361	 0.025642286	 0.027908173	 0.030374355	 0.030374355	 0.030377465	 0.030377465
 0.000000000	 0.018390175	 0.020000019	 0.020394181	 0.020484496	 0.020484506	 0.020484506	 0.020484506
 0.000000000	 0.035957644	 0.081108977	 0.081349741	 0.082387233	 0.082387233	 0.082388745	 0.082388745
 0.000000000	 0.032954706	 0.070880221	 0.071784765	 0.073679218	 0.073679216	 0.073683580	 0.073683580
 0.000000000	 0.047730016	 0.056824398	 0.068883021	 0.106311147	 0.106311139	 0.106344017	 0.106344017
 0.000000000	 0.014495272	 0.027070712	 0.027732513	 0.030449072	 0.030449072	 0.030453382	 0.030453382
 0.000000000	 0.026544395	 0.042973476	 0.044467717	 0.048337646	 0.048337646	 0.048344471	 0.048344471
 0.000000000	 0.039390471	 0.065263053	 0.066827347	 0.073099449	 0.073099449	 0.073109172	 0.073109172
 0.000000000	 0.043005656	 0.096014660	 0.096560597	 0.098891544	 0.098891544	 0.098893612	 0.098893612
 0.000000000	 0.021143170	 0.015608594	 0.024895068	 0.031546429	 0.031546429	 0.031551131	 0.031551131
 0.000000000	 0.032820145	 0.021304395	 0.037058574	 0.068614201	 0.068614200	 0.068638812	 0.068638812
 0.000000000	 0.013913666	 0.027513617	 0.028452442	 0.030813201	 0.030813201	 0.030815190	 0.030815190
 0.000000000	 0.032441404	 0.048137796	 0.054098051	 0.062529058	 0.062529058	 0.062542208	 0.062542208
 0.000000000	 0.028383509	 0.009289598	 0.029204722	 0.059845971	 0.059845970	 0.059872091	 0.059872091
 0.000000000	 0.013977029	 0.008826822	 0.015757134	 0.030940461	 0.030940459	 0.030951920	 0.030951920
 0.000000000	 0.013002245	 0.009936089	 0.015788790	 0.025219935	 0.025219935	 0.025227184	 0.025227184
 0.000000000	 0.029881392	 0.023268721	 0.033246398	 0.059620135	 0.059620135	 0.059642550	 0.059642550
 0.000000000	 0.019656668	 0.034914341	 0.034956472	 0.035118526	 0.035118526	 0.035119171	 0.035119171
 0.000000000	 0.016570132	 0.019805775	 0.024346829	 0.035956370	 0.035956370	 0.035966510	 0.035966510
 0.000000000	 0.020015659	 0.019106555	 0.022112908	 0.022781666	 0.022781702	 0.022781702	 0.022781702
 0.000000000	 0.026025662	 0.010589326	 0.027661695	 0.057185640	 0.057185640	 0.057210844	 0.057210844
 0.000000000	 0.031880600	 0.030672324	 0.036532631	 0.054632860	 0.054632858	 0.054647988	 0.054647988
 0.000000000	 0.032543323	 0.044122174	 0.050014319	 0.070064068	 0.070064068	 0.070085149	 0.070085149
 0.000000000	 0.034324316	 0.050645464	 0.056456308	 0.076333930	 0.076333930	 0.076351195	 0.076351195
 0.000000000	 0.024745906	 0.033712434	 0.035866752	 0.040598854	 0.040598854	 0.040603891	 0.040603891
 0.000000000	 0.008403072	 0.017697877	 0.017722120	 0.017749926	 0.017749942	 0.017749942	 0.017749942
 0.000000000	 0.014750211	 0.012429143	 0.016501111	 0.022435935	 0.022435935	 0.022441338	 0.022441338
 0.000000000	 0.022585037	 0.015920693	 0.024140107	 0.025641526	 0.025641588	 0.025641588	 0.025641588
 0.000000000	 0.027397237	 0.032032574	 0.036396010	 0.046030480	 0.046030475	 0.046041646	 0.046041646
 0.000000000	 0.038697463	 0.014343286	 0.039517100	 0.047632174	 0.047632173	 0.047635142	 0.047635142
 0.000000000	 0.014842459	 0.027511568	 0.028642619	 0.032534199	 0.032534198	 0.032537076	 0.032537076
 0.000000000	 0.023284741	 0.029459440	 0.034806141	 0.049347091	 0.049347091	 0.049361879	 0.049361879
 0.000000000	 0.016704650	 0.013496029	 0.017936562	 0.028028932	 0.028028931	 0.028038811	 0.028038811
 0.000000000	 0.033163441	 0.022610661	 0.037736687	 0.067155433	 0.067155432	 0.067183457	 0.067183457
 0.000000000	 0.012764880	 0.003579975	 0.013027674	 0.016794008	 0.016794008	 0.016796647	 0.016796647
 0.000000000	 0.018187549	 0.008934535	 0.019598387	 0.027503494	 0.027503493	 0.027509916	 0.027509916
 0.000000000	 0.032926160	 0.010119188	 0.033315358	 0.059219070	 0.059219070	 0.059244331	 0.059244331
 0.000000000	 0.050755646	 0.013098966	 0.051826790	 0.106227835	 0.106227823	 0.106273681	 0.106273681
 0.000000000	 0.013488457	 0.011143197	 0.014689110	 0.017985227	 0.017985227	 0.017988093	 0.017988093
 0.000000000	 0.056707225	 0.034203380	 0.061953473	 0.117160570	 0.117160559	 0.117220779	 0.117220779
 0.000000000	 0.023788208	 0.044330297	 0.044600248	 0.044676934	 0.044676934	 0.044677029	 0.044677029
 0.000000000	 0.032992918	 0.060736128	 0.063832523	 0.075116120	 0.075116119	 0.075129065	 0.075129065
 0.000000000	 0.035822543	 0.061671353	 0.062327910	 0.064317596	 0.064317596	 0.064318407	 0.064318407
